<CMxpClip>
	<ID />
	<TimecodeIn />
	<TimecodeOut />
	<ClippingIn />
	<ClippingOut />
	<TrackId />
	<Type />
	<SourceId />
	<ClipInfo>
		<ClippingIn />
		<ClippingOut />
		<description />
		<file_id />
		<filename />
		<Tcin />
		<Tcout />
	</ClipInfo>
</CMxpClip>